<?xml version="1.0" encoding="utf-8"?>
<!-- Generator: Adobe Illustrator 19.2.1, SVG Export Plug-In . SVG Version: 6.00 Build 0)  -->
<svg version="1.1" id="Layer_1" xmlns="http://www.w3.org/2000/svg" xmlns:xlink="http://www.w3.org/1999/xlink" x="0px" y="0px"
	 viewBox="0 0 20 18" style="enable-background:new 0 0 20 18;" xml:space="preserve">
<style type="text/css">
	.st0{fill:#526779;}
</style>
<path class="st0" d="M1.8,1.8h4.3C6.5,1.8,6.7,2,7,2.4c0.2,0.4,0.6,0.8,1.2,0.8h10c0.7,0,1,0.8,0.8,1.7c0.1-0.3-0.5-0.2-0.8-0.2H1.8
	C1.5,4.8,1.2,4.9,1,5V3.1C1,2.4,1.4,1.8,1.8,1.8z M19,15.2c0,0.5-0.4,0.9-0.9,0.9H1.8c-0.5,0-0.9-0.4-0.9-0.9V6.5
	C1,6,1.4,5.6,1.8,5.6h16.3C18.6,5.6,19,6,19,6.5V15.2z M18.2,2.4h-10C8,2.4,7.9,2.3,7.6,2C7.4,1.6,7,1,6.1,1H1.8
	C0.9,1,0.2,1.9,0.2,3.1v12.2c0,1,0.8,1.7,1.7,1.7h16.3c0.9,0,1.7-0.8,1.7-1.7V4.5C19.8,3.4,19.1,2.4,18.2,2.4z"/>
</svg>
