<?xml version="1.0" encoding="utf-8"?>
<!-- Generator: Adobe Illustrator 19.2.1, SVG Export Plug-In . SVG Version: 6.00 Build 0)  -->
<svg version="1.1" xmlns="http://www.w3.org/2000/svg" xmlns:xlink="http://www.w3.org/1999/xlink" x="0px" y="0px"
	 viewBox="0 0 36 36" style="enable-background:new 0 0 36 36;" xml:space="preserve">
<style type="text/css">
	.st0{fill:#999CBB;}
</style>
<g id="Layer_1">
	<g>
		<path class="st0" d="M2.6,4.5C2.3,4.5,2,4.7,2,5l0.2,28.4c0,0.3,0.3,0.6,0.6,0.6l30.6-0.2c0.3,0,0.6-0.3,0.6-0.6L33.8,4.8
			c0-0.3-0.3-0.6-0.6-0.6L2.6,4.5z M33.4,36L2.8,36.3c-1.6,0-2.9-1.3-2.9-2.8L-0.3,5.1c0-1.6,1.3-2.9,2.8-2.9L33.2,2
			c1.6,0,2.9,1.3,2.9,2.8l0.2,28.4C36.3,34.8,35,36,33.4,36z"/>
		<path class="st0" d="M35,11.1L0.9,11.3c-0.6,0-1.1-0.5-1.1-1.1C-0.2,9.5,0.3,9,0.9,9L35,8.8c0.6,0,1.1,0.5,1.1,1.1
			C36.1,10.5,35.6,11.1,35,11.1z"/>
		<path class="st0" d="M6.6,6.7c-0.6,0-1.1-0.5-1.1-1.1l0-4.5c0-0.6,0.5-1.1,1.1-1.1c0.6,0,1.1,0.5,1.1,1.1l0,4.5
			C7.7,6.2,7.2,6.7,6.6,6.7z"/>
		<path class="st0" d="M29.3,6.6c-0.6,0-1.1-0.5-1.1-1.1l0-4.5c0-0.6,0.5-1.1,1.1-1.1c0.6,0,1.1,0.5,1.1,1.1l0,4.5
			C30.4,6,29.9,6.5,29.3,6.6z"/>
	</g>
</g>
<g id="Layer_2">
	<path class="st0" d="M11.6,18.9c2.4-2.4,6.3-2.4,8.8,0c2.4,2.4,2.4,6.3,0,8.7s-6.3,2.4-8.8,0C9.2,25.2,9.2,21.3,11.6,18.9z
		 M21.7,17.5c-3.1-3.1-8.3-3.1-11.4,0s-3.1,8.3,0,11.4c3,3,7.9,3.1,11.1,0.3l1,1c-0.4,0.6-0.3,1.4,0.3,2l3.3,3.3
		c0.6,0.6,1.7,0.6,2.3,0c0.6-0.6,0.6-1.7,0-2.3l-3.3-3.3c-0.5-0.5-1.4-0.6-2-0.3l-1-1C24.8,25.5,24.7,20.6,21.7,17.5z"/>
</g>
</svg>
