<?xml version="1.0" encoding="utf-8"?>
<!-- Generator: Adobe Illustrator 19.2.1, SVG Export Plug-In . SVG Version: 6.00 Build 0)  -->
<svg version="1.1" id="Layer_1" xmlns="http://www.w3.org/2000/svg" xmlns:xlink="http://www.w3.org/1999/xlink" x="0px" y="0px"
	 viewBox="0 0 36 36" style="enable-background:new 0 0 36 36;" xml:space="preserve">
<style type="text/css">
	.st0{fill:#464A70;}
</style>
<path class="st0" d="M30.3,24.5c-0.2,0-0.4,0.1-0.5,0.2c-0.3,0.3-0.3,0.8,0,1.1l0.6,0.6h-3.5c-0.4,0-0.8,0.3-0.8,0.8
	c0,0.4,0.3,0.8,0.8,0.8h3.5l-0.6,0.6c-0.3,0.3-0.3,0.8,0,1.1c0.3,0.3,0.8,0.3,1.1,0c0.6-0.6,1.3-1.3,1.9-1.9
	c0.2-0.1,0.3-0.3,0.3-0.6c0-0.2-0.1-0.4-0.3-0.6c-0.6-0.6-1.3-1.3-1.9-1.9C30.7,24.6,30.5,24.5,30.3,24.5z M29.5,22.6
	c2.6,0,4.6,2.1,4.6,4.6s-2.1,4.6-4.6,4.6c-2.6,0-4.6-2.1-4.6-4.6S27,22.6,29.5,22.6z M1.9,13.4h30v8.1c-0.7-0.3-1.5-0.4-2.3-0.4
	c-3.4,0-6.1,2.8-6.1,6.1c0,0.8,0.2,1.6,0.4,2.3h-22V13.4z M25.3,6.9c0.6,0,1.2,0.5,1.2,1.2s-0.5,1.2-1.2,1.2c-0.6,0-1.2-0.5-1.2-1.2
	S24.7,6.9,25.3,6.9z M8.4,6.9C9,6.9,9.6,7.4,9.6,8S9,9.2,8.4,9.2S7.2,8.7,7.2,8S7.8,6.9,8.4,6.9z M25.3,5.3c-1.5,0-2.7,1.2-2.7,2.7
	s1.2,2.7,2.7,2.7c1.5,0,2.7-1.2,2.7-2.7S26.8,5.3,25.3,5.3z M8.4,5.3C6.9,5.3,5.7,6.5,5.7,8s1.2,2.7,2.7,2.7s2.7-1.2,2.7-2.7
	S9.9,5.3,8.4,5.3z M1.9,4.2h30v7.7h-30V4.2z M1.1,2.6c-0.4,0-0.8,0.4-0.8,0.8v26.9c0,0.4,0.4,0.8,0.8,0.8h23.6
	c1.1,1.4,2.9,2.3,4.8,2.3c3.4,0,6.1-2.8,6.1-6.1c0-1.9-0.9-3.7-2.3-4.8v-19c0-0.4-0.4-0.8-0.8-0.8H1.1z"/>
</svg>
