<?xml version="1.0" encoding="utf-8"?>
<!-- Generator: Adobe Illustrator 19.2.1, SVG Export Plug-In . SVG Version: 6.00 Build 0)  -->
<svg version="1.1" xmlns="http://www.w3.org/2000/svg" xmlns:xlink="http://www.w3.org/1999/xlink" x="0px" y="0px"
	 viewBox="0 0 36 36" style="enable-background:new 0 0 36 36;" xml:space="preserve">
<style type="text/css">
	.st0{fill:#464A70;}
</style>
<g id="Layer_1">
	<g>
		<path class="st0" d="M16.9,28c-0.3,0-0.6-0.1-0.8-0.3l-4.4-4.4c-0.4-0.4-0.4-1.1,0-1.6c0.4-0.4,1.1-0.4,1.6,0l3.6,3.6l7-8
			c0.4-0.5,1.1-0.5,1.6-0.1c0.5,0.4,0.5,1.1,0.1,1.6l-7.8,8.9C17.5,27.8,17.2,28,16.9,28C16.9,28,16.9,28,16.9,28z"/>
		<path class="st0" d="M3,4.7c-0.3,0-0.6,0.3-0.6,0.6V33c0,0.3,0.3,0.6,0.6,0.6H33c0.3,0,0.6-0.3,0.6-0.6V5.2c0-0.3-0.3-0.6-0.6-0.6
			H3z M33,35.8H3c-1.5,0-2.8-1.2-2.8-2.8V5.2c0-1.5,1.2-2.8,2.8-2.8H33c1.5,0,2.8,1.2,2.8,2.8V33C35.8,34.5,34.5,35.8,33,35.8z"/>
		<path class="st0" d="M34.6,11.3H1.4c-0.6,0-1.1-0.5-1.1-1.1c0-0.6,0.5-1.1,1.1-1.1h33.3c0.6,0,1.1,0.5,1.1,1.1
			C35.8,10.8,35.3,11.3,34.6,11.3z"/>
		<path class="st0" d="M6.9,6.9c-0.6,0-1.1-0.5-1.1-1.1V1.4c0-0.6,0.5-1.1,1.1-1.1C7.5,0.2,8,0.7,8,1.4v4.4C8,6.4,7.5,6.9,6.9,6.9z"
			/>
		<path class="st0" d="M29.1,6.9c-0.6,0-1.1-0.5-1.1-1.1V1.4c0-0.6,0.5-1.1,1.1-1.1c0.6,0,1.1,0.5,1.1,1.1v4.4
			C30.2,6.4,29.7,6.9,29.1,6.9z"/>
	</g>
</g>
<g id="Layer_2">
</g>
</svg>
