<?xml version="1.0" encoding="utf-8"?>
<!-- Generator: Adobe Illustrator 19.2.1, SVG Export Plug-In . SVG Version: 6.00 Build 0)  -->
<svg version="1.1" xmlns="http://www.w3.org/2000/svg" xmlns:xlink="http://www.w3.org/1999/xlink" x="0px" y="0px"
	 viewBox="0 0 18 21" style="enable-background:new 0 0 18 21;" xml:space="preserve">
<style type="text/css">
	.st0{enable-background:new    ;}
	.st1{fill-rule:evenodd;clip-rule:evenodd;fill:#999DBA;}
	.st2{fill:#989DB8;}
</style>
<g id="Shape_1_1_" class="st0">
	<g id="Shape_1">
		<g>
			<path class="st1" d="M13.9,13.1C13.9,13.1,13.9,13.1,13.9,13.1c-0.9-0.8-2-0.8-2-0.8c-1.2,0-2.2-0.9-2.4-2c0.3-0.2,0.7-0.6,1-0.9
				c0.6-0.8,1-1.9,1.1-3c0.2-0.5,0.3-1.1,0.3-1.7c0-2.3-1.8-4.2-3.9-4.2c-0.6,0-1.1,0.1-1.6,0.4c-0.2,0-0.4,0.1-0.6,0.1
				C3.9,1.3,2.9,3.5,3.5,5.7c0.1,0.2,0.1,0.4,0.2,0.6c0.2,1.7,0.9,3.2,2,3.9c-0.5,2.1-2.4,2-2.5,2c-1.6,0.1-2.8,1.3-2.8,2.9v2.7
				c0,0.7,0.5,1.2,1.2,1.2H9c0.2,0,0.4-0.2,0.4-0.4S9.3,18.2,9,18.2H1.6c-0.2,0-0.3-0.1-0.3-0.3v-2.7c0-1.1,0.9-2,2-2
				c0,0,0.7,0,1.3-0.3c0.8,0.8,1.9,1.2,3,1.2c1.1,0,2.2-0.4,3-1.2c0.4,0.2,0.8,0.3,1.2,0.3c0,0,0.4,0,0.8,0.2
				c-1.5,0.5-2.5,1.9-2.5,3.6c0,2.1,1.7,3.8,3.8,3.8c2.1,0,3.8-1.7,3.8-3.8C17.7,14.8,16,13.1,13.9,13.1z M6,1.7
				c0.1,0,0.3-0.1,0.5-0.1c0.1,0,0.1,0,0.2-0.1C7,1.3,7.5,1.2,7.9,1.2c1.7,0,3,1.5,3,3.3c0,0.1,0,0.1,0,0.2
				c-0.3-0.4-0.7-0.6-1.3-0.6H6.9C6.7,4.1,6.6,4.1,6.5,4C6.3,3.9,6.3,3.8,6.2,3.7C6.1,3.5,5.9,3.3,5.7,3.3c-0.2,0-0.4,0.2-0.5,0.4
				C5,4.4,4.7,4.9,4.3,5.4C3.9,3.7,4.7,2,6,1.7z M5.6,8.9C5,8.2,4.7,7.3,4.6,6.4c0.5-0.5,1-1.1,1.3-1.7c0,0,0.1,0.1,0.1,0.1
				C6.2,4.9,6.5,5,6.9,5h2.8c0.5,0,0.9,0.4,0.9,0.9C10.6,7.6,9.9,9,8.8,9.6c0,0-0.5,0.4-1.2,0.4C6.9,10,6.1,9.6,5.6,8.9z M7.6,13.2
				c-0.8,0-1.6-0.3-2.2-0.8c0.5-0.4,0.9-1,1.1-1.7c0.3,0.1,0.7,0.2,1.1,0.2c0.4,0,0.7-0.1,1.1-0.2c0.2,0.7,0.6,1.3,1.1,1.7
				C9.2,12.9,8.4,13.2,7.6,13.2z M13.9,19.9c-1.7,0-3.1-1.4-3.1-3.1c0-1.7,1.4-3.1,3.1-3.1c1.7,0,3.1,1.4,3.1,3.1
				C17,18.5,15.6,19.9,13.9,19.9z"/>
		</g>
	</g>
</g>
<g id="Vector_Smart_Object_xA0_Image_1_">
	<polygon class="st2" points="16,15.9 15.3,15.2 13.5,17.1 12.8,16.4 12.1,17.1 13.5,18.4 	"/>
</g>
</svg>
