<?xml version="1.0" encoding="utf-8"?>
<!-- Generator: Adobe Illustrator 19.2.1, SVG Export Plug-In . SVG Version: 6.00 Build 0)  -->
<svg version="1.1" id="Shape_1_1_" xmlns="http://www.w3.org/2000/svg" xmlns:xlink="http://www.w3.org/1999/xlink" x="0px" y="0px"
	 viewBox="0 0 17.5 17" style="enable-background:new 0 0 17.5 17;" xml:space="preserve">
<style type="text/css">
	.st0{fill-rule:evenodd;clip-rule:evenodd;fill:#B3B5C3;}
</style>
<g id="Shape_1">
	<g>
		<path class="st0" d="M16.7,4.1c-0.2-0.1-0.5,0-0.6,0.2l-0.8,1.6c-0.5-1.4-1.5-2.6-2.8-3.5C10.8,1.4,8.9,1,7,1.4
			C4.4,2,2.3,3.9,1.5,6.5C1.5,6.7,1.6,6.9,1.7,7c0,0,0.1,0,0.1,0c0.2,0.1,0.5-0.1,0.5-0.3C3,4.5,4.9,2.8,7.2,2.3
			c3.1-0.7,6.2,1.1,7.3,4l-1.7-0.9c-0.2-0.1-0.5,0-0.6,0.2c-0.1,0.2,0,0.5,0.2,0.6c0,0,0,0,0,0l2.6,1.4c0.2,0.1,0.5,0,0.6-0.2l0,0
			c0,0,0,0,0,0l0,0l1.3-2.5C17,4.5,16.9,4.2,16.7,4.1z M15.2,10.2c-0.2-0.1-0.5,0.1-0.5,0.3c-0.7,2.2-2.5,3.9-4.8,4.4
			c-1.6,0.3-3.2,0-4.5-0.7c-1.3-0.7-2.3-1.9-2.8-3.3l1.8,0.8c0.2,0.1,0.5,0,0.6-0.2c0.1-0.2,0-0.5-0.2-0.6L2,9.7
			c-0.2-0.1-0.5,0-0.6,0.2l-1.2,2.6c-0.1,0.2,0,0.5,0.2,0.6c0,0,0,0,0,0c0.2,0.1,0.5,0,0.6-0.2l0.7-1.6c0.5,1.4,1.5,2.6,2.8,3.5
			C4.7,14.9,4.8,15,4.9,15c1.6,0.9,3.4,1.2,5.1,0.8c2.6-0.6,4.7-2.5,5.4-5C15.5,10.6,15.4,10.3,15.2,10.2z"/>
	</g>
</g>
</svg>
