<?xml version="1.0" encoding="utf-8"?>
<!-- Generator: Adobe Illustrator 19.2.1, SVG Export Plug-In . SVG Version: 6.00 Build 0)  -->
<svg version="1.0" id="Layer_1" xmlns="http://www.w3.org/2000/svg" xmlns:xlink="http://www.w3.org/1999/xlink" x="0px" y="0px"
	 viewBox="0 0 18 12" style="enable-background:new 0 0 18 12;" xml:space="preserve">
<style type="text/css">
	.st0{fill:#FFFDFD;}
</style>
<rect x="9.2" y="6.5" class="st0" width="6.8" height="0.8"/>
<rect x="12.2" y="7.8" class="st0" width="3.8" height="0.8"/>
<path class="st0" d="M16.9,2.1L16.9,2.1l0,0.1H1.1l0-0.3c0-0.4,0.4-0.8,0.8-0.8h14.2c0.4,0,0.8,0.4,0.8,0.8L16.9,2.1L16.9,2.1z
	 M1.1,4.2V3h15.8v1.2L1.1,4.2L1.1,4.2z M16.9,10.1c0,0.4-0.4,0.8-0.8,0.8H1.9c-0.4,0-0.8-0.4-0.8-0.8V5.3h0V4.9h15.8v0.2h0V10.1z
	 M17.6,2.1V1.9c0-0.9-0.7-1.5-1.5-1.5H1.9c-0.9,0-1.5,0.7-1.6,1.5v0.4h0v3h0v4.8c0,0.9,0.7,1.5,1.6,1.5h14.2c0.9,0,1.5-0.7,1.5-1.5
	V5.2h0L17.6,2.1L17.6,2.1z"/>
</svg>
