<?xml version="1.0" encoding="utf-8"?>
<!-- Generator: Adobe Illustrator 19.2.1, SVG Export Plug-In . SVG Version: 6.00 Build 0)  -->
<svg version="1.1" id="Layer_1" xmlns="http://www.w3.org/2000/svg" xmlns:xlink="http://www.w3.org/1999/xlink" x="0px" y="0px"
	 viewBox="0 0 16 16" style="enable-background:new 0 0 16 16;" xml:space="preserve">
<style type="text/css">
	.st0{fill:#5C7381;}
</style>
<g>
	<path class="st0" d="M11.4,11.7H5.9v-1.6C5.9,10,6,9.8,6.2,9.7c1.6-0.6,3.3-0.6,4.9,0c0.2,0.1,0.3,0.3,0.3,0.5L11.4,11.7L11.4,11.7
		z M11.4,8.9c-1.8-0.7-3.7-0.7-5.5,0C5.4,9.1,5,9.6,5,10.2v2c0,0.2,0.2,0.4,0.4,0.4h6.4c0.2,0,0.4-0.2,0.4-0.4v-2
		C12.3,9.6,11.9,9.1,11.4,8.9z"/>
	<path class="st0" d="M8.7,4.3c0.7,0,1.2,0.5,1.2,1.2S9.4,6.7,8.7,6.7S7.4,6.1,7.4,5.5C7.4,4.8,8,4.3,8.7,4.3z M8.7,7.6
		c1.2,0,2.1-0.9,2.1-2.1S9.9,3.4,8.7,3.4S6.6,4.3,6.6,5.5C6.6,6.6,7.5,7.6,8.7,7.6z"/>
	<path class="st0" d="M14,14.6c0,0.2-0.2,0.4-0.4,0.4H3.7c-0.2,0-0.4-0.2-0.4-0.4v-1.4H4c0.2,0,0.4-0.2,0.4-0.4S4.2,12.4,4,12.4H3.3
		v-1.2H4c0.2,0,0.4-0.2,0.4-0.4S4.2,10.4,4,10.4H3.3V5.8H4c0.2,0,0.4-0.2,0.4-0.4C4.4,5.2,4.2,5,4,5H3.3V3.7H4
		c0.2,0,0.4-0.2,0.4-0.4C4.4,3,4.2,2.8,4,2.8H3.3V1.4C3.3,1.2,3.5,1,3.7,1h9.8C13.8,1,14,1.2,14,1.4V14.6L14,14.6z M13.6,0.1H3.7
		C3,0.1,2.4,0.7,2.4,1.4v1.4H1.6C1.3,2.8,1.1,3,1.1,3.3c0,0.2,0.2,0.4,0.4,0.4h0.9v1.2H1.6c-0.2,0-0.4,0.2-0.4,0.4
		c0,0.2,0.2,0.4,0.4,0.4h0.9v4.5H1.6c-0.2,0-0.4,0.2-0.4,0.4S1.4,11,1.6,11h0.9v1.2H1.6c-0.2,0-0.4,0.2-0.4,0.4S1.4,13,1.6,13h0.9
		v1.4c0,0.7,0.6,1.3,1.3,1.3h9.8c0.7,0,1.3-0.6,1.3-1.3v-13C14.9,0.7,14.3,0.1,13.6,0.1z"/>
</g>
</svg>
